task_3/verify/control_unit_tb.vcd
$date
	Sun Jul 12 18:52:50 2020
$end
$version
	Icarus Verilog
$end
$timescale
	1ps
$end
$scope module control_unit_tb $end
$var wire 1 ! reg_en $end
$var wire 1 " rD_wr $end
$var wire 2 # pc_op [1:0] $end
$var wire 1 $ mem_wr $end
$var wire 1 % mem_rd $end
$var wire 1 & inst_wr $end
$var wire 1 ' imm_en $end
$var wire 1 ( decoder_en $end
$var wire 1 ) adrs_ctrl $end
$var reg 1 * clock $end
$var reg 1 + flag $end
$var reg 4 , opcode [3:0] $end
$var reg 1 - reset $end
$var integer 32 . i [31:0] $end
$scope module uut $end
$var wire 1 * clock $end
$var wire 1 + flag $end
$var wire 1 / gnd $end
$var wire 4 0 opcode [3:0] $end
$var wire 1 - reset $end
$var wire 1 1 vdd $end
$var wire 1 ! reg_en $end
$var wire 1 " rD_wr $end
$var wire 2 2 pc_op [1:0] $end
$var wire 1 $ mem_wr $end
$var wire 1 % mem_rd $end
$var wire 1 & inst_wr $end
$var wire 1 ' imm_en $end
$var wire 1 ( decoder_en $end
$var wire 5 3 cState [4:0] $end
$var wire 1 ) adrs_ctrl $end
$var wire 1 4 _9_ $end
$var wire 1 5 _8_ $end
$var wire 1 6 _7_ $end
$var wire 1 7 _6_ $end
$var wire 1 8 _5_ $end
$var wire 1 9 _4_ $end
$var wire 1 : _3_ $end
$var wire 1 ; _2_ $end
$var wire 1 < _27_ $end
$var wire 1 = _26_ $end
$var wire 2 > _25_ [1:0] $end
$var wire 1 ? _24_ $end
$var wire 1 @ _23_ $end
$var wire 1 A _22_ $end
$var wire 1 B _21_ $end
$var wire 1 C _20_ $end
$var wire 1 D _1_ $end
$var wire 1 E _19_ $end
$var wire 1 F _18_ $end
$var wire 1 G _17_ $end
$var wire 1 H _16_ $end
$var wire 1 I _15_ $end
$var wire 1 J _14_ $end
$var wire 1 K _13_ $end
$var wire 1 L _12_ $end
$var wire 1 M _11_ $end
$var wire 1 N _10_ $end
$var wire 1 O _0_ $end
$scope module _28_ $end
$var wire 1 P B $end
$var wire 1 Q I0_out $end
$var wire 1 R Y $end
$var wire 1 A A $end
$upscope $end
$scope module _29_ $end
$var wire 1 8 Y $end
$var wire 1 A A $end
$upscope $end
$scope module _30_ $end
$var wire 1 S A $end
$var wire 1 8 B $end
$var wire 1 T I0_out $end
$var wire 1 U Y $end
$upscope $end
$scope module _31_ $end
$var wire 1 - A $end
$var wire 1 O Y $end
$upscope $end
$scope module _32_ $end
$var wire 1 8 A $end
$var wire 1 O B $end
$var wire 1 V I0_out $end
$var wire 1 D Y $end
$upscope $end
$scope module _33_ $end
$var wire 1 W A $end
$var wire 1 X B $end
$var wire 1 7 Y $end
$upscope $end
$scope module _34_ $end
$var wire 1 Y A $end
$var wire 1 6 Y $end
$upscope $end
$scope module _35_ $end
$var wire 1 Z A $end
$var wire 1 6 B $end
$var wire 1 [ I0_out $end
$var wire 1 5 Y $end
$upscope $end
$scope module _36_ $end
$var wire 1 7 A $end
$var wire 1 5 B $end
$var wire 1 \ I0_out $end
$var wire 1 4 Y $end
$upscope $end
$scope module _37_ $end
$var wire 1 4 A $end
$var wire 1 ] B $end
$var wire 1 ? Y $end
$upscope $end
$scope module _38_ $end
$var wire 1 ^ A $end
$var wire 1 N Y $end
$upscope $end
$scope module _39_ $end
$var wire 1 _ A $end
$var wire 1 N B $end
$var wire 1 ` I0_out $end
$var wire 1 M Y $end
$upscope $end
$scope module _40_ $end
$var wire 1 7 A $end
$var wire 1 M B $end
$var wire 1 a I0_out $end
$var wire 1 L Y $end
$upscope $end
$scope module _41_ $end
$var wire 1 L A $end
$var wire 1 b B $end
$var wire 1 @ Y $end
$upscope $end
$scope module _42_ $end
$var wire 1 c A $end
$var wire 1 K Y $end
$upscope $end
$scope module _43_ $end
$var wire 1 d A $end
$var wire 1 K B $end
$var wire 1 e I0_out $end
$var wire 1 J Y $end
$upscope $end
$scope module _44_ $end
$var wire 1 f A $end
$var wire 1 g B $end
$var wire 1 h I0_out $end
$var wire 1 I Y $end
$upscope $end
$scope module _45_ $end
$var wire 1 i A $end
$var wire 1 I B $end
$var wire 1 M C $end
$var wire 1 J D $end
$var wire 1 j I0_out $end
$var wire 1 k I1_out $end
$var wire 1 l I2_out $end
$var wire 1 H Y $end
$upscope $end
$scope module _46_ $end
$var wire 1 7 A $end
$var wire 1 5 B $end
$var wire 1 m C $end
$var wire 1 n I0_out $end
$var wire 1 o I1_out $end
$var wire 1 G Y $end
$upscope $end
$scope module _47_ $end
$var wire 1 G A $end
$var wire 1 H B $end
$var wire 1 p I0_out $end
$var wire 1 = Y $end
$upscope $end
$scope module _48_ $end
$var wire 1 q A $end
$var wire 1 r B $end
$var wire 1 - C $end
$var wire 1 s I0_out $end
$var wire 1 t I1_out $end
$var wire 1 F Y $end
$upscope $end
$scope module _49_ $end
$var wire 1 F A $end
$var wire 1 ; Y $end
$upscope $end
$scope module _50_ $end
$var wire 1 u A $end
$var wire 1 E Y $end
$upscope $end
$scope module _51_ $end
$var wire 1 v A $end
$var wire 1 C Y $end
$upscope $end
$scope module _52_ $end
$var wire 1 E A $end
$var wire 1 C B $end
$var wire 1 H C $end
$var wire 1 w I0_out $end
$var wire 1 x I1_out $end
$var wire 1 < Y $end
$upscope $end
$scope module _53_ $end
$var wire 1 O A $end
$var wire 1 C B $end
$var wire 1 y I0_out $end
$var wire 1 : Y $end
$upscope $end
$scope module _54_ $end
$var wire 1 - A $end
$var wire 1 9 Y $end
$var wire 1 B B $end
$upscope $end
$scope module _55_ $end
$var wire 1 / A $end
$var wire 1 ) Y $end
$upscope $end
$scope module _56_ $end
$var wire 1 ( Y $end
$var wire 1 B A $end
$upscope $end
$scope module _57_ $end
$var wire 1 / A $end
$var wire 1 ' Y $end
$upscope $end
$scope module _58_ $end
$var wire 1 & Y $end
$var wire 1 A A $end
$upscope $end
$scope module _59_ $end
$var wire 1 @ A $end
$var wire 1 % Y $end
$upscope $end
$scope module _60_ $end
$var wire 1 ? A $end
$var wire 1 $ Y $end
$upscope $end
$scope module _61_ $end
$var wire 1 z A $end
$var wire 1 { Y $end
$upscope $end
$scope module _62_ $end
$var wire 1 | A $end
$var wire 1 } Y $end
$upscope $end
$scope module _63_ $end
$var wire 1 = A $end
$var wire 1 " Y $end
$upscope $end
$scope module _64_ $end
$var wire 1 < A $end
$var wire 1 ! Y $end
$upscope $end
$scope module _65_ $end
$var wire 1 * CLK $end
$var wire 1 O D $end
$var wire 1 ~ DS0000 $end
$var wire 1 !" P0002 $end
$var wire 1 "" Q $end
$var reg 1 #" NOTIFIER $end
$upscope $end
$scope module _66_ $end
$var wire 1 * CLK $end
$var wire 1 9 D $end
$var wire 1 $" DS0000 $end
$var wire 1 %" P0002 $end
$var wire 1 &" Q $end
$var reg 1 '" NOTIFIER $end
$upscope $end
$scope module _67_ $end
$var wire 1 * CLK $end
$var wire 1 : D $end
$var wire 1 (" DS0000 $end
$var wire 1 )" P0002 $end
$var wire 1 *" Q $end
$var reg 1 +" NOTIFIER $end
$upscope $end
$scope module _68_ $end
$var wire 1 * CLK $end
$var wire 1 ; D $end
$var wire 1 ," DS0000 $end
$var wire 1 -" P0002 $end
$var wire 1 A Q $end
$var reg 1 ." NOTIFIER $end
$upscope $end
$scope module _69_ $end
$var wire 1 * CLK $end
$var wire 1 D D $end
$var wire 1 /" DS0000 $end
$var wire 1 0" P0002 $end
$var wire 1 B Q $end
$var reg 1 1" NOTIFIER $end
$upscope $end
$upscope $end
$upscope $end
$enddefinitions $end
#0
$dumpvars
x1"
z0"
z/"
x."
z-"
z,"
x+"
z*"
z)"
z("
x'"
z&"
z%"
z$"
x#"
z""
z!"
z~
x}
x|
x{
xz
1y
xx
xw
zv
zu
0t
xs
zr
zq
xp
xo
1n
zm
1l
1k
1j
0i
0h
0g
0f
0e
0d
0c
zb
1a
0`
0_
0^
z]
1\
0[
0Z
0Y
0X
0W
1V
xU
xT
zS
xR
xQ
zP
1O
1N
1M
0L
1K
1J
1I
0H
xG
1F
zE
0D
zC
zB
zA
0@
0?
bx >
x=
x<
0;
0:
09
z8
07
16
15
04
bz 3
bx 2
11
b0 0
0/
bx .
0-
b0 ,
0+
0*
0)
z(
0'
z&
0%
0$
bx #
x"
x!
$end
#5000
0!
0"
0{
0<
0=
b0 #
b0 2
0}
0z
1x
1p
0|
0R
1w
1G
b0 >
0U
1Q
1C
1E
1s
0o
1T
1q
1S
1P
0v
0b
0u
0r
0m
0]
0&
18
0(
0!"
1""
1%"
0&"
1)"
bz001 3
0*"
1-"
0A
10"
0B
1~
0$"
0("
0,"
0/"
1*
#10000
0*
1;
0F
0O
1t
1-
#15000
0;
b10 #
b10 2
1}
1F
1|
0t
b10 >
1U
1D
0s
0T
0V
0q
0S
0P
1&
08
1!"
bz000 3
0""
0-"
1A
0~
1,"
1*
#20000
0*
b0 .
#25000
b11 #
b11 2
1{
0D
1z
1V
b11 >
1R
0&
18
0Q
1(
19
1-"
0A
00"
1B
0,"
1/"
1*
#30000
0*
#35000
1!
1<
0x
1:
0w
0y
0C
1v
1b
0(
09
0%"
bz010 3
1&"
10"
0B
1$"
0/"
1*
#40000
0*
#45000
1"
1;
1=
0:
0F
0p
1y
1t
0G
1C
0E
1s
1o
0v
0b
1u
1r
1m
1]
1%"
0&"
0)"
bz100 3
1*"
0$"
1("
1*
#50000
0*
#55000
0!
0"
0<
0;
0=
1x
1F
1p
b10 #
b10 2
0{
1w
0t
1G
1D
0z
1E
0s
0o
0V
b10 >
0R
0u
0r
0m
0]
1&
08
1Q
1)"
bz000 3
0*"
0-"
1A
0("
1,"
1*
#60000
0*
1L
0a
0M
06
1`
1Y
1_
1g
b1 ,
b1 0
b1 .
#65000
b11 #
b11 2
1{
0D
1z
1V
b11 >
1R
0&
18
0Q
1(
19
1-"
0A
00"
1B
0,"
1/"
1*
#70000
0*
#75000
1!
1<
0x
1:
0w
0y
1%
0C
1@
1v
1b
0(
09
0%"
bz010 3
1&"
10"
0B
1$"
0/"
1*
#80000
0*
#85000
1"
1;
1=
0:
0F
0p
1y
0%
1t
0G
1C
0@
0E
1s
1o
0v
0b
1u
1r
1m
1]
1%"
0&"
0)"
bz100 3
1*"
0$"
1("
1*
#90000
0*
#95000
0!
0"
0<
0;
0=
1x
1F
1p
b10 #
b10 2
0{
1w
0t
1G
1D
0z
1E
0s
0o
0V
b10 >
0R
0u
0r
0m
0]
1&
08
1Q
1)"
bz000 3
0*"
0-"
1A
0("
1,"
1*
#100000
0*
14
0\
0n
0L
05
1a
1[
1M
16
0N
0`
0Y
1Z
1^
0_
1f
0g
b10 ,
b10 0
b10 .
#105000
b11 #
b11 2
1{
0D
1z
1V
b11 >
1R
0&
18
0Q
1(
19
1-"
0A
00"
1B
0,"
1/"
1*
#110000
0*
#115000
1!
1<
0x
1:
0w
0y
0C
1v
1b
0(
09
0%"
bz010 3
1&"
10"
0B
1$"
0/"
1*
#120000
0*
#125000
1;
0:
0F
1y
1t
1$
1C
0E
1s
1?
0v
0b
1u
1r
1m
1]
1%"
0&"
0)"
bz100 3
1*"
0$"
1("
1*
#130000
0*
#135000
0!
0<
0;
1x
1F
b10 #
b10 2
0{
1w
0t
0$
1D
0z
1E
0s
0?
0V
b10 >
0R
0u
0r
0m
0]
1&
08
1Q
1)"
bz000 3
0*"
0-"
1A
0("
1,"
1*
#140000
0*
04
1H
1\
1n
0l
15
0j
0[
0I
06
1h
1Y
1_
1g
b11 ,
b11 0
b11 .
#145000
b11 #
b11 2
1{
0D
1z
1V
b11 >
1R
0&
18
0Q
1(
19
1-"
0A
00"
1B
0,"
1/"
1*
#150000
0*
#155000
1:
0w
0y
0C
1v
1b
0(
09
0%"
bz010 3
1&"
10"
0B
1$"
0/"
1*
#160000
0*
#165000
1;
0:
0F
1y
1t
0G
1C
0E
1s
1o
0v
0b
1u
1r
1m
1]
1%"
0&"
0)"
bz100 3
1*"
0$"
1("
1*
#170000
0*
#175000
0;
1F
b10 #
b10 2
0{
1w
0t
1G
1D
0z
1E
0s
0o
0V
b10 >
0R
0u
0r
0m
0]
1&
08
1Q
1)"
bz000 3
0*"
0-"
1A
0("
1,"
1*
#180000
0*
0H
0J
1I
1l
17
16
1N
1e
0h
1j
1X
0Y
0Z
0^
0_
1d
0f
0g
1i
b100 ,
b100 0
b100 .
#185000
b11 #
b11 2
1{
0D
1z
1V
b11 >
1R
0&
18
0Q
1(
19
1-"
0A
00"
1B
0,"
1/"
1*
#190000
0*
#195000
1!
1<
0x
1:
0w
0y
0C
1v
1b
0(
09
0%"
bz010 3
1&"
10"
0B
1$"
0/"
1*
#200000
0*
#205000
1"
1;
1=
0:
0F
0p
1y
1t
0G
1C
0E
1s
1o
0v
0b
1u
1r
1m
1]
1%"
0&"
0)"
bz100 3
1*"
0$"
1("
1*
#210000
0*
#215000
0!
0"
0<
0;
0=
1x
1F
1p
b10 #
b10 2
0{
1w
0t
1G
1D
0z
1E
0s
0o
0V
b10 >
0R
0u
0r
0m
0]
1&
08
1Q
1)"
bz000 3
0*"
0-"
1A
0("
1,"
1*
#220000
0*
1H
0l
0k
0M
06
1`
1Y
1_
1g
b101 ,
b101 0
b101 .
#225000
b11 #
b11 2
1{
0D
1z
1V
b11 >
1R
0&
18
0Q
1(
19
1-"
0A
00"
1B
0,"
1/"
1*
#230000
0*
#235000
1:
0w
0y
0C
1v
1b
0(
09
0%"
bz010 3
1&"
10"
0B
1$"
0/"
1*
#240000
0*
#245000
1;
0:
0F
1y
1t
0G
1C
0E
1s
1o
0v
0b
1u
1r
1m
1]
1%"
0&"
0)"
bz100 3
1*"
0$"
1("
1*
#250000
0*
#255000
0;
1F
b10 #
b10 2
0{
1w
0t
1G
1D
0z
1E
0s
0o
0V
b10 >
0R
0u
0r
0m
0]
1&
08
1Q
1)"
bz000 3
0*"
0-"
1A
0("
1,"
1*
#260000
0*
0H
1l
05
1k
1[
1M
16
0N
0`
0Y
1Z
1^
0_
1f
0g
b110 ,
b110 0
b110 .
#265000
b11 #
b11 2
1{
0D
1z
1V
b11 >
1R
0&
18
0Q
1(
19
1-"
0A
00"
1B
0,"
1/"
1*
#270000
0*
#275000
1!
1<
0x
1:
0w
0y
0C
1v
1b
0(
09
0%"
bz010 3
1&"
10"
0B
1$"
0/"
1*
#280000
0*
#285000
1"
1;
1=
0:
0F
0p
1y
1t
0G
1C
0E
1s
1o
0v
0b
1u
1r
1m
1]
1%"
0&"
0)"
bz100 3
1*"
0$"
1("
1*
#290000
0*
#295000
0!
0"
0<
0;
0=
1x
1F
1p
b10 #
b10 2
0{
1w
0t
1G
1D
0z
1E
0s
0o
0V
b10 >
0R
0u
0r
0m
0]
1&
08
1Q
1)"
bz000 3
0*"
0-"
1A
0("
1,"
1*
#300000
0*
15
0[
0I
06
1h
1Y
1_
1g
b111 ,
b111 0
b111 .
#305000
b11 #
b11 2
1{
0D
1z
1V
b11 >
1R
0&
18
0Q
1(
19
1-"
0A
00"
1B
0,"
1/"
1*
#310000
0*
#315000
1!
1<
0x
1:
0w
0y
0C
1v
1b
0(
09
0%"
bz010 3
1&"
10"
0B
1$"
0/"
1*
#320000
0*
#325000
1"
1;
1=
0:
0F
0p
1y
1t
0G
1C
0E
1s
1o
0v
0b
1u
1r
1m
1]
1%"
0&"
0)"
bz100 3
1*"
0$"
1("
1*
#330000
0*
#335000
0!
0"
0<
0;
0=
1x
1F
1p
b10 #
b10 2
0{
1w
0t
1G
1D
0z
1E
0s
0o
0V
b10 >
0R
0u
0r
0m
0]
1&
08
1Q
1)"
bz000 3
0*"
0-"
1A
0("
1,"
1*
#340000
0*
0H
1J
1I
1l
16
1N
0K
0e
0h
1j
1W
0X
0Y
0Z
0^
0_
1c
0d
0f
0g
0i
b1000 ,
b1000 0
b1000 .
#345000
b11 #
b11 2
1{
0D
1z
1V
b11 >
1R
0&
18
0Q
1(
19
1-"
0A
00"
1B
0,"
1/"
1*
#350000
0*
#355000
1!
1<
0x
1:
0w
0y
0C
1v
1b
0(
09
0%"
bz010 3
1&"
10"
0B
1$"
0/"
1*
#360000
0*
#365000
1"
1;
1=
0:
0F
0p
1y
1t
0G
1C
0E
1s
1o
0v
0b
1u
1r
1m
1]
1%"
0&"
0)"
bz100 3
1*"
0$"
1("
1*
#370000
0*
#375000
0!
0"
0<
0;
0=
1x
1F
1p
b10 #
b10 2
0{
1w
0t
1G
1D
0z
1E
0s
0o
0V
b10 >
0R
0u
0r
0m
0]
1&
08
1Q
1)"
bz000 3
0*"
0-"
1A
0("
1,"
1*
#380000
0*
0M
06
1`
1Y
1_
1g
b1001 ,
b1001 0
b1001 .
#385000
b11 #
b11 2
1{
0D
1z
1V
b11 >
1R
0&
18
0Q
1(
19
1-"
0A
00"
1B
0,"
1/"
1*
#390000
0*
#395000
1!
1<
0x
1:
0w
0y
0C
1v
1b
0(
09
0%"
bz010 3
1&"
10"
0B
1$"
0/"
1*
#400000
0*
#405000
1"
1;
1=
0:
0F
0p
1y
1t
0G
1C
0E
1s
1o
0v
0b
1u
1r
1m
1]
1%"
0&"
0)"
bz100 3
1*"
0$"
1("
1*
#410000
0*
#415000
0!
0"
0<
0;
0=
1x
1F
1p
b10 #
b10 2
0{
1w
0t
1G
1D
0z
1E
0s
0o
0V
b10 >
0R
0u
0r
0m
0]
1&
08
1Q
1)"
bz000 3
0*"
0-"
1A
0("
1,"
1*
#420000
0*
05
1[
1M
16
0N
0`
0Y
1Z
1^
0_
1f
0g
b1010 ,
b1010 0
b1010 .
#425000
b11 #
b11 2
1{
0D
1z
1V
b11 >
1R
0&
18
0Q
1(
19
1-"
0A
00"
1B
0,"
1/"
1*
#430000
0*
#435000
1!
1<
0x
1:
0w
0y
0C
1v
1b
0(
09
0%"
bz010 3
1&"
10"
0B
1$"
0/"
1*
#440000
0*
#445000
1"
1;
1=
0:
0F
0p
1y
1t
0G
1C
0E
1s
1o
0v
0b
1u
1r
1m
1]
1%"
0&"
0)"
bz100 3
1*"
0$"
1("
1*
#450000
0*
#455000
0!
0"
0<
0;
0=
1x
1F
1p
b10 #
b10 2
0{
1w
0t
1G
1D
0z
1E
0s
0o
0V
b10 >
0R
0u
0r
0m
0]
1&
08
1Q
1)"
bz000 3
0*"
0-"
1A
0("
1,"
1*
#460000
0*
1H
0l
15
0j
0[
0I
06
1h
1Y
1_
1g
b1011 ,
b1011 0
b1011 .
#465000
b11 #
b11 2
1{
0D
1z
1V
b11 >
1R
0&
18
0Q
1(
19
1-"
0A
00"
1B
0,"
1/"
1*
#470000
0*
#475000
1:
0w
0y
0C
1v
1b
0(
09
0%"
bz010 3
1&"
10"
0B
1$"
0/"
1*
#480000
0*
#485000
1;
0:
0F
1y
1t
0G
1C
0E
1s
1o
0v
0b
1u
1r
1m
1]
1%"
0&"
0)"
bz100 3
1*"
0$"
1("
1*
#490000
0*
#495000
0;
1F
b10 #
b10 2
0{
1w
0t
1G
1D
0z
1E
0s
0o
0V
b10 >
0R
0u
0r
0m
0]
1&
08
1Q
1)"
bz000 3
0*"
0-"
1A
0("
1,"
1*
#500000
0*
0H
1I
1l
16
1N
0h
1j
1X
0Y
0Z
0^
0_
1d
0f
0g
1i
b1100 ,
b1100 0
b1100 .
#505000
b11 #
b11 2
1{
0D
1z
1V
b11 >
1R
0&
18
0Q
1(
19
1-"
0A
00"
1B
0,"
1/"
1*
#510000
0*
#515000
1!
1<
0x
1:
0w
0y
0C
1v
1b
0(
09
0%"
bz010 3
1&"
10"
0B
1$"
0/"
1*
#520000
0*
#525000
1"
1;
1=
0:
0F
0p
1y
1t
0G
1C
0E
1s
1o
0v
0b
1u
1r
1m
1]
1%"
0&"
0)"
bz100 3
1*"
0$"
1("
1*
#530000
0*
#535000
0!
0"
0<
0;
0=
1x
1F
1p
b10 #
b10 2
0{
1w
0t
1G
1D
0z
1E
0s
0o
0V
b10 >
0R
0u
0r
0m
0]
1&
08
1Q
1)"
bz000 3
0*"
0-"
1A
0("
1,"
1*
#540000
0*
0M
06
1`
1Y
1_
1g
b1101 ,
b1101 0
b1101 .
#545000
b11 #
b11 2
1{
0D
1z
1V
b11 >
1R
0&
18
0Q
1(
19
1-"
0A
00"
1B
0,"
1/"
1*
#550000
0*
#555000
1!
1<
0x
1:
0w
0y
0C
1v
1b
0(
09
0%"
bz010 3
1&"
10"
0B
1$"
0/"
1*
#560000
0*
#565000
1"
1;
1=
0:
0F
0p
1y
1t
0G
1C
0E
1s
1o
0v
0b
1u
1r
1m
1]
1%"
0&"
0)"
bz100 3
1*"
0$"
1("
1*
#570000
0*
#575000
0!
0"
0<
0;
0=
1x
1F
1p
b10 #
b10 2
0{
1w
0t
1G
1D
0z
1E
0s
0o
0V
b10 >
0R
0u
0r
0m
0]
1&
08
1Q
1)"
bz000 3
0*"
0-"
1A
0("
1,"
1*
#580000
0*
05
1[
1M
16
0N
0`
0Y
1Z
1^
0_
1f
0g
b1110 ,
b1110 0
b1110 .
#585000
b11 #
b11 2
1{
0D
1z
1V
b11 >
1R
0&
18
0Q
1(
19
1-"
0A
00"
1B
0,"
1/"
1*
#590000
0*
#595000
1!
1<
0x
1:
0w
0y
0C
1v
1b
0(
09
0%"
bz010 3
1&"
10"
0B
1$"
0/"
1*
#600000
0*
#605000
1"
1;
1=
0:
0F
0p
1y
1t
0G
1C
0E
1s
1o
0v
0b
1u
1r
1m
1]
1%"
0&"
0)"
bz100 3
1*"
0$"
1("
1*
#610000
0*
#615000
0!
0"
0<
0;
0=
1x
1F
1p
b10 #
b10 2
0{
1w
0t
1G
1D
0z
1E
0s
0o
0V
b10 >
0R
0u
0r
0m
0]
1&
08
1Q
1)"
bz000 3
0*"
0-"
1A
0("
1,"
1*
#620000
0*
b1111 .
#625000
b11 #
b11 2
1{
0D
1z
1V
b11 >
1R
0&
18
0Q
1(
19
1-"
0A
00"
1B
0,"
1/"
1*
#630000
0*
#635000
1!
1<
0x
1:
0w
0y
0C
1v
1b
0(
09
0%"
bz010 3
1&"
10"
0B
1$"
0/"
1*
#640000
0*
#645000
1"
1;
1=
0:
0F
0p
1y
1t
0G
1C
0E
1s
1o
0v
0b
1u
1r
1m
1]
1%"
0&"
0)"
bz100 3
1*"
0$"
1("
1*
#650000
0*
#655000
0!
0"
0<
0;
0=
1x
1F
1p
b10 #
b10 2
0{
1w
0t
1G
1D
0z
1E
0s
0o
0V
b10 >
0R
0u
0r
0m
0]
1&
08
1Q
1)"
bz000 3
0*"
0-"
1A
0("
1,"
1*
#660000
0*
#665000
b11 #
b11 2
1{
0D
1z
1V
b11 >
1R
0&
18
0Q
1(
19
1-"
0A
00"
1B
0,"
1/"
1*
#670000
0*
#675000
1!
1<
0x
1:
0w
0y
0C
1v
1b
0(
09
0%"
bz010 3
1&"
10"
0B
1$"
0/"
1*
#680000
0*
#685000
1"
1;
1=
0:
0F
0p
1y
1t
0G
1C
0E
1s
1o
0v
0b
1u
1r
1m
1]
1%"
0&"
0)"
bz100 3
1*"
0$"
1("
1*
#690000
0*
#695000
0!
0"
0<
0;
0=
1x
1F
1p
b10 #
b10 2
0{
1w
0t
1G
1D
0z
1E
0s
0o
0V
b10 >
0R
0u
0r
0m
0]
1&
08
1Q
1)"
bz000 3
0*"
0-"
1A
0("
1,"
1*
#700000
0*
#705000
b11 #
b11 2
1{
0D
1z
1V
b11 >
1R
0&
18
0Q
1(
19
1-"
0A
00"
1B
0,"
1/"
1*
#710000
0*
#715000
1!
1<
0x
1:
0w
0y
0C
1v
1b
0(
09
0%"
bz010 3
1&"
10"
0B
1$"
0/"
1*
